<svg width="40" height="40" viewBox="0 0 40 40" fill="none" xmlns="http://www.w3.org/2000/svg">
<path d="M8.04444 17.3111L12.9333 12.4222C13.5556 11.8 13.7333 10.9333 13.4889 10.1556C12.6667 7.66667 12.2222 5 12.2222 2.22222C12.2222 1 11.2222 0 10 0H2.22222C0.999998 0 -1.90735e-06 1 -1.90735e-06 2.22222C-1.90735e-06 23.0889 16.9111 40 37.7778 40C39 40 40 39 40 37.7778V30.0222C40 28.8 39 27.8 37.7778 27.8C35.0222 27.8 32.3333 27.3556 29.8444 26.5333C29.0667 26.2667 28.1778 26.4667 27.5778 27.0667L22.6889 31.9556C16.4 28.7333 11.2444 23.6 8.04444 17.3111Z" fill="#00C853"/>
</svg>
