<svg width="14" height="18" viewBox="0 0 14 18" fill="none"
    xmlns="http://www.w3.org/2000/svg">
    <path d="M2.72727 18L0 11.4545L3.81818 11.4545L5.45455 15.2727L2.72727 18Z" fill="#00C853"/>
    <path d="M10.3636 0L2.72727 18L6.54546 18L13.0909 2.72727L10.3636 0Z" fill="#00C853"/>
</svg>
